500, 0.00073, 0.005
1000, 0.00072, 0.005
1500, 0.00066, 0.005
2000, 0.00071, 0.005
2500, 0.00070, 0.005
3000, 0.00070, 0.005
3500, 0.00069, 0.005
4000, 0.00066, 0.005
4500, 0.00069, 0.005
5000, 0.00070, 0.005
5500, 0.00072, 0.005
6000, 0.00066, 0.005
6500, 0.00065, 0.005
7000, 0.00066, 0.005
7500, 0.00069, 0.005
8000, 0.00062, 0.005
8500, 0.00064, 0.005
9000, 0.00068, 0.005
9500, 0.00066, 0.005
10000, 0.00070, 0.005
10500, 0.00082, 0.02
11000, 0.00089, 0.02
11500, 0.00091, 0.02
12000, 0.00094, 0.02
12500, 0.00082, 0.02
13000, 0.00084, 0.02
13500, 0.00098, 0.02
14000, 0.00100, 0.02
14500, 0.00091, 0.02
15000, 0.00095, 0.02
15500, 0.00088, 0.02
16000, 0.00091, 0.02
16500, 0.00082, 0.02
17000, 0.00080, 0.02
17500, 0.00085, 0.02
18000, 0.00094, 0.02
18500, 0.00080, 0.02
19000, 0.00080, 0.02
19500, 0.00093, 0.02
20000, 0.00088, 0.02
20500, 0.00079, 0.02
21000, 0.00084, 0.02
21500, 0.00089, 0.02
22000, 0.00080, 0.02
22500, 0.00086, 0.02
23000, 0.00088, 0.02
23500, 0.00092, 0.02
24000, 0.00096, 0.02
24500, 0.00089, 0.02
25000, 0.00084, 0.02
