scorer,Malfatti,Malfatti,Malfatti,Malfatti,Malfatti,Malfatti,Malfatti,Malfatti,Malfatti,Malfatti,Malfatti,Malfatti,Malfatti,Malfatti,Malfatti,Malfatti,Malfatti,Malfatti,Malfatti,Malfatti
bodyparts,Nose,Nose,RPaw,RPaw,RFinger1,RFinger1,RFinger2,RFinger2,RFinger3,RFinger3,LPaw,LPaw,LFinger1,LFinger1,LFinger2,LFinger2,LFinger3,LFinger3,Pellet1,Pellet1
coords,x,y,x,y,x,y,x,y,x,y,x,y,x,y,x,y,x,y,x,y
labeled-data\67109\img01230.png,575.1479813664597,684.9754376058723,286.66689723320155,812.5728402032751,,,351.3902173913044,821.8190287972897,347.6917419536985,851.4068322981366,,,,,,,,,519.6708498023717,812.5728402032751
labeled-data\67109\img01231.png,569.6002682100509,688.6739130434783,295.91308582721626,821.8190287972897,,,345.8425042348955,825.5175042348956,345.8425042348955,855.1053077357426,538.230498102786,749.3426933584913,,,,,,,521.0994668638755,812.5643562639947
labeled-data\67109\img01232.png,569.6002682100509,684.9754376058723,288.51613495200456,829.2159796725014,,,345.8425042348955,821.8190287972897,349.5409796725015,858.8037831733484,556.6556041784304,746.0002823263692,,,,,,,523.3693252399775,810.723602484472
labeled-data\67109\img01233.png,565.901792772445,686.8246753246754,295.91308582721626,821.8190287972897,,,349.5409796725014,825.5175042348956,345.8425042348955,853.2560700169396,551.1078910220215,742.3018068887634,,,,,,,523.3693252399775,812.5728402032751
labeled-data\67109\img01234.png,580.6956945228686,677.5784867306606,288.51613495200456,816.2713156408809,,,349.5409796725014,818.1205533596838,347.6917419536985,851.4068322981366,552.9571287408245,727.5079051383399,,,,,,,521.5200875211746,814.422077922078
labeled-data\67109\img01235.png,582.5449322416715,673.8800112930547,306.01210610210745,825.0695522408998,340.4699517940876,809.2763729654089,357.6988746400777,827.9410393818982,346.2129260760843,855.2201672213824,550.371850554498,716.7109829660433,,,,,,,522.714208500973,812.4489746897838
labeled-data\67109\img01236.png,580.6956945228686,655.3876341050254,301.6431906259356,825.2713394736264,,,354.39371462750296,827.9666217218817,350.9283517368891,857.6147264526896,552.1193071063669,708.6964013112313,,,,,,,521.9882704473001,811.3651188161995
labeled-data\67109\img01237.png,586.2434076792773,649.8399209486166,304.7774971536209,827.5623946457147,,,355.5930303885837,828.1301659667757,351.61863114115647,859.3575886251327,585.3222607088735,717.0998084293631,526.0619448365201,715.8565850194535,544.7102959851628,725.8023722987297,551.3408208380135,735.3337517747026,521.9178668034884,813.6568265990019
labeled-data\67109\img01238.png,588.0926453980802,651.6891586674195,307.32116782319633,829.6322378464063,338.1554869212819,808.5818853852132,356.8339686826223,826.0744317966272,352.09022728291677,857.5017185696761,576.4499658450454,708.805648344732,513.8972289212518,706.1625749535858,555.3053787158758,743.6061146614904,566.7586967441761,756.3809693853638,522.2669613265482,812.7665350631496
labeled-data\67109\img01239.png,589.9418831168831,638.7444946357989,311.4373111753099,831.7110409537431,344.4430980289443,808.4128384688247,358.3110756985386,826.7185689926893,355.8148397180116,859.4469962929318,589.2994531301562,738.9575685466424,538.7720344731498,721.5339066636357,549.1289665021598,751.2537985729685,563.5386110642605,776.4706765566449,522.1108829482207,812.4947879618969
labeled-data\67109\img01240.png,595.489596273292,644.2922077922077,310.55495538573814,825.7934280447168,339.28940511713756,807.9314728062794,355.59814685658046,824.6285179204709,353.6566299828372,862.6822486458377,573.6166433785938,748.6973918846232,522.3214412689415,738.8658114802732,525.3136613920045,768.3605526933234,540.7022220249003,798.2827539239538,520.6116011986197,811.9614744865278
labeled-data\67109\img01241.png,589.9418831168831,642.4429700734048,313.1216211145053,828.7909995756336,336.7330767420781,807.99882223195,353.64874644541385,822.8000332223688,351.53428773249686,858.393421556471,541.1268366597683,770.4883246648033,492.9967965123528,761.2473569564995,475.6699820592832,790.1253810449489,503.39288518419454,839.4105421559024,,
labeled-data\67109\img01242.png,589.9418831168833,640.5937323546018,310.7069875776398,831.0652173913044,341.1984219773303,810.5492249017277,360.93336996455537,824.9980261066603,357.40927210969375,861.648643797221,538.9023216760654,758.6447454296126,484.8661545681874,758.6447454296126,471.73236395168925,789.4153405882655,496.1236893823286,826.1899543144602,,
labeled-data\67109\img01243.png,586.2434076792773,636.895256916996,313.7680972876582,831.1821652312287,,,358.011840634018,826.728097109112,354.1516482615168,858.5004497135449,559.1142497818389,761.5762727562864,506.1222598161421,738.2780702713679,504.7517773170292,762.0331002559906,518.4566023081577,794.4678527349947,,
labeled-data\67109\img01244.png,576.9972190852626,646.1414455110107,307.0085121400339,829.2159796725014,,,356.83006704892586,824.7343713782595,351.05446223123596,853.9974357878882,569.986196081801,750.7512883232938,509.6849661208357,731.7472643355957,512.9741241187066,753.6749843214012,522.841598112319,773.4099323086263,,
labeled-data\67109\img01245.png,580.6956945228686,649.8399209486166,315.646937428442,834.0546965493692,336.79152455761164,812.6164345989611,362.0475591841198,827.0065008396459,359.1108109717352,858.7233815334005,584.8981159537198,752.3945621008014,,,,,,,,
labeled-data\67109\img01246.png,569.6002682100509,664.63382269904,304.80931845202883,830.3543938017644,,,354.30984109855723,825.5381267334536,354.57741149124115,860.3222777823654,586.4087198795702,736.8230936072595,,,,,,,,
labeled-data\67109\img01247.png,575.1479813664597,660.9353472614342,303.31003670242796,825.5175042348956,,,351.3902173913044,821.8190287972897,347.6917419536985,853.2560700169396,571.4495059288538,721.9601919819311,,,,,,,,
labeled-data\67109\img01248.png,573.2987436476568,657.2368718238283,308.85774985883677,829.2159796725014,,,355.0886928289102,821.8190287972898,351.3902173913044,853.2560700169396,601.9829773580836,714.7917261835526,580.2183683793213,686.8413862318788,560.2865685777178,703.7948711205989,553.6426353105168,717.3118388021461,,
labeled-data\67109\img01249.png,573.2987436476568,655.3876341050254,299.61156126482217,827.3667419536985,,,356.9379305477131,825.5175042348955,353.2394551101073,856.9545454545454,580.9314175127158,710.7752274791712,575.175391016442,681.1728054983337,542.6949557874675,689.8068452427447,526.6603105478471,697.6185954876879,,
labeled-data\67109\img01250.png,564.0525550536421,666.483060417843,295.91308582721626,819.9697910784867,,,349.5409796725014,819.9697910784867,347.6917419536985,851.4068322981366,554.8063664596274,694.221626199887,,,,,,,,
labeled-data\67109\img01251.png,,,299.61156126482217,829.2159796725014,,,347.6917419536985,818.1205533596838,345.8425042348955,855.1053077357426,554.8063664596274,681.2769621682664,,,,,,,,
labeled-data\67109\img01252.png,,,307.0085121400339,829.2159796725014,,,347.6917419536985,818.1205533596838,347.6917419536985,855.1053077357426,545.5601778656127,677.5784867306606,,,,,,,,
labeled-data\67109\img01253.png,,,303.31003670242796,832.9144551101073,,,345.8425042348955,819.9697910784867,353.2394551101073,855.1053077357426,532.6155138339922,677.5784867306606,,,,,,,,
labeled-data\67109\img01254.png,,,301.46079898362507,834.7636928289103,,,343.9932665160926,825.5175042348956,349.5409796725014,858.8037831733484,521.5200875211746,670.1815358554488,,,,,,,,
labeled-data\67109\img01255.png,,,303.31003670242796,831.0652173913044,,,349.5409796725014,819.9697910784867,347.6917419536985,855.1053077357426,,,,,,,,,,
labeled-data\67109\img19210.png,504.005900621118,591.9902597402596,362.105138339921,681.1330463015245,,,434.87476002258614,670.2176030491246,420.32083568605304,633.8327922077921,531.2945087521175,624.7365894974589,,,473.0788114059853,637.4712732919253,487.6327357425184,655.6636787125916,480.3557735742518,801.2029220779219
labeled-data\67109\img19211.png,504.005900621118,601.0864624505928,362.105138339921,682.9522868435911,,,436.69400056465275,668.398362507058,423.95931677018626,630.1943111236588,527.6560276679841,637.4712732919253,,,480.3557735742518,639.2905138339919,493.0904573687182,652.0251976284584,478.5365330321852,799.3836815358553
labeled-data\67109\img19212.png,509.4636222473179,597.4479813664594,360.28589779785426,684.7715273856577,,,433.0555194805194,664.7598814229248,420.32083568605304,632.0135516657255,540.3907114624506,641.1097543760586,,,480.3557735742518,646.5674760022584,487.6327357425184,662.9406408808582,478.5365330321852,803.0221626199886
labeled-data\67109\img19213.png,513.1021033314512,615.6403867871257,353.0089356295878,690.2292490118575,,,433.0555194805194,668.398362507058,423.9593167701864,635.6520327498587,531.2945087521175,653.844438170525,,,480.3557735742518,652.0251976284584,493.0904573687182,664.7598814229248,480.3557735742518,808.4798842461885
labeled-data\67109\img19214.png,509.4636222473179,621.0981084133257,362.105138339921,693.8677300959907,,,433.0555194805194,672.0368435911912,418.50159514398644,637.4712732919253,531.2945087521175,670.2176030491246,,,487.63273574251826,659.3021597967249,498.54817899491803,679.3138057594578,478.5365330321852,804.8414031620553
labeled-data\67109\img19215.png,513.1021033314512,615.6403867871257,374.83982213438736,697.5062111801241,,,431.2362789384528,675.6753246753245,414.8631140598532,646.5674760022584,525.8367871259175,666.5791219649914,,,,,,,480.3557735742518,803.0221626199886
labeled-data\67109\img19216.png,513.1021033314512,617.4596273291924,391.21298701298696,712.060135516657,,,,,,,529.4752682100509,662.9406408808582,,,,,,,478.5365330321852,804.8414031620553
labeled-data\67109\img19217.png,516.7405844155844,626.5558300395255,398.4899491812535,733.8910220214566,,,,,,,,,,,,,,,478.5365330321852,812.1183653303217
labeled-data\67109\img19218.png,516.7405844155844,617.4596273291924,414.8631140598532,746.6257058159231,,,,,,,522.1983060417842,655.6636787125916,,,,,,,476.7172924901186,810.2991247882551
labeled-data\67109\img19219.png,525.8367871259175,612.0019057029925,,,,,,,,,534.9329898362507,668.398362507058,,,,,,,476.7172924901186,806.6606437041219
labeled-data\67109\img19220.png,522.1983060417842,610.1826651609259,,,,,,,,,533.1137492941841,682.9522868435911,473.0788114059853,668.398362507058,480.3557735742518,701.1446922642574,493.0904573687182,726.6140598531902,480.3557735742518,803.0221626199886
labeled-data\67109\img19221.png,525.8367871259175,606.5441840767926,,,,,,,,,500.36741953698476,692.0484895539241,442.1517221908526,675.6753246753245,443.9709627329192,704.7831733483906,462.1633681535855,737.5295031055899,485.81349520045165,801.2029220779219
labeled-data\67109\img19222.png,514.9213438735178,602.9057029926594,,,,,,,,,489.451976284585,706.6024138904572,436.69400056465275,692.0484895539241,427.5977978543196,733.8910220214566,436.69400056465275,772.0950734048558,482.17501411631844,803.0221626199886
labeled-data\67109\img19223.png,520.3790654997176,604.724943534726,338.4550112930547,741.1679841897233,,,,,,,443.9709627329192,772.0950734048558,398.4899491812535,741.1679841897233,374.83982213438736,779.3720355731224,385.75526538678713,826.6722896668548,487.6327357425184,806.660643704122
labeled-data\67109\img19224.png,520.3790654997176,593.8095002823262,343.91273291925467,746.6257058159231,,,,,,,447.6094438170525,741.1679841897233,394.8514680971203,750.2641869000563,376.65906267645397,784.8297571993223,393.0322275550537,819.3953274985882,,
labeled-data\67109\img19225.png,514.9213438735178,597.4479813664594,342.09349237718806,739.3487436476565,,,,,,,456.7056465273857,748.4449463579897,407.58615189158667,737.5295031055899,394.8514680971203,770.2758328627892,400.3091897233201,815.7568464144549,507.6443817052512,775.7335544889891
labeled-data\67109\img19226.png,505.8251411631846,604.724943534726,371.20134105025414,748.4449463579897,,,,,,,485.81349520045165,744.8064652738565,429.4170383963862,724.7948193111235,427.5977978543196,755.7219085262562,442.1517221908527,777.5527950310557,524.0175465838508,766.637351778656
labeled-data\67109\img19227.png,507.6443817052512,624.7365894974589,393.0322275550537,742.9872247317899,,,,,,,509.46362224731786,719.3370976849237,,,451.24792490118574,717.517857142857,467.62108977978545,739.3487436476565,549.4869141727836,786.6489977413889
labeled-data\67109\img19228.png,509.4636222473179,633.8327922077921,387.57450592885374,741.1679841897233,,,,,,,518.559824957651,695.6869706380573,,,,,467.62108977978545,737.5295031055899,554.9446357989837,819.3953274985882
labeled-data\67109\img19229.png,511.2828627893845,621.0981084133257,385.75526538678713,737.5295031055899,507.6443817052512,675.6753246753245,,,,,,,,,,,,,540.3907114624506,826.6722896668548
labeled-data\67109\img19230.png,496.7289384528514,624.7365894974589,349.3704545454545,708.4216544325238,402.1284302653867,684.7715273856577,403.94767080745345,710.2408949745904,398.4899491812535,733.8910220214566,529.4752682100507,679.3138057594578,529.4752682100509,641.1097543760586,507.6443817052512,648.386716544325,482.17501411631844,655.6636787125916,,
labeled-data\67109\img19231.png,502.18666007905136,621.0981084133257,358.46665725578765,699.3254517221908,,,420.32083568605304,699.3254517221908,418.50159514398644,713.8793760587237,527.6560276679841,668.398362507058,,,,,483.99425465838505,642.9289949181252,,
labeled-data\67109\img19232.png,496.7289384528514,608.3634246188592,345.7319734613213,693.8677300959907,405.76691134952006,655.6636787125916,416.6823546019198,679.3138057594579,413.0438735177865,701.1446922642574,531.2945087521175,662.9406408808582,,,524.0175465838508,615.6403867871257,505.8251411631846,630.1943111236588,,
labeled-data\67109\img19233.png,487.6327357425184,593.8095002823262,356.64741671372104,672.0368435911912,413.0438735177865,646.5674760022584,418.50159514398644,666.5791219649914,422.14007622811965,690.2292490118575,529.4752682100509,644.7482354601918,,,534.9329898362507,602.9057029926594,516.7405844155844,613.8211462450591,,
labeled-data\67109\img19234.png,494.9096979107848,586.5325381140597,374.83982213438736,662.9406408808582,,,438.51324110671936,659.3021597967248,434.87476002258614,682.9522868435911,518.559824957651,639.2905138339919,,,533.1137492941841,597.4479813664594,514.9213438735178,604.7249435347259,,
